%YAML 1.1
%TAG !u! tag:unity3d.com,2011:
--- !u!1 &7345248415763686715
GameObject:
  m_ObjectHideFlags: 0
  m_CorrespondingSourceObject: {fileID: 0}
  m_PrefabInstance: {fileID: 0}
  m_PrefabAsset: {fileID: 0}
  serializedVersion: 6
  m_Component:
  - component: {fileID: 1250284747918834657}
  m_Layer: 0
  m_Name: PF_BluePlanet
  m_TagString: Untagged
  m_Icon: {fileID: 0}
  m_NavMeshLayer: 0
  m_StaticEditorFlags: 0
  m_IsActive: 1
--- !u!4 &1250284747918834657
Transform:
  m_ObjectHideFlags: 0
  m_CorrespondingSourceObject: {fileID: 0}
  m_PrefabInstance: {fileID: 0}
  m_PrefabAsset: {fileID: 0}
  m_GameObject: {fileID: 7345248415763686715}
  m_LocalRotation: {x: 0, y: 0, z: 0, w: 1}
  m_LocalPosition: {x: 0, y: 0, z: 0}
  m_LocalScale: {x: 1, y: 1, z: 1}
  m_Children:
  - {fileID: 1610025307374109024}
  m_Father: {fileID: 0}
  m_RootOrder: 0
  m_LocalEulerAnglesHint: {x: 0, y: 0, z: 0}
--- !u!1001 &1287268639498643083
PrefabInstance:
  m_ObjectHideFlags: 0
  serializedVersion: 2
  m_Modification:
    m_TransformParent: {fileID: 1250284747918834657}
    m_Modifications:
    - target: {fileID: -8679921383154817045, guid: ff93da11b55b3049e869b04bc9c3aca2, type: 3}
      propertyPath: m_RootOrder
      value: 0
      objectReference: {fileID: 0}
    - target: {fileID: -8679921383154817045, guid: ff93da11b55b3049e869b04bc9c3aca2, type: 3}
      propertyPath: m_LocalPosition.x
      value: 0
      objectReference: {fileID: 0}
    - target: {fileID: -8679921383154817045, guid: ff93da11b55b3049e869b04bc9c3aca2, type: 3}
      propertyPath: m_LocalPosition.y
      value: 0
      objectReference: {fileID: 0}
    - target: {fileID: -8679921383154817045, guid: ff93da11b55b3049e869b04bc9c3aca2, type: 3}
      propertyPath: m_LocalPosition.z
      value: 0
      objectReference: {fileID: 0}
    - target: {fileID: -8679921383154817045, guid: ff93da11b55b3049e869b04bc9c3aca2, type: 3}
      propertyPath: m_LocalRotation.w
      value: 1
      objectReference: {fileID: 0}
    - target: {fileID: -8679921383154817045, guid: ff93da11b55b3049e869b04bc9c3aca2, type: 3}
      propertyPath: m_LocalRotation.x
      value: 0
      objectReference: {fileID: 0}
    - target: {fileID: -8679921383154817045, guid: ff93da11b55b3049e869b04bc9c3aca2, type: 3}
      propertyPath: m_LocalRotation.y
      value: 0
      objectReference: {fileID: 0}
    - target: {fileID: -8679921383154817045, guid: ff93da11b55b3049e869b04bc9c3aca2, type: 3}
      propertyPath: m_LocalRotation.z
      value: 0
      objectReference: {fileID: 0}
    - target: {fileID: -8679921383154817045, guid: ff93da11b55b3049e869b04bc9c3aca2, type: 3}
      propertyPath: m_LocalEulerAnglesHint.x
      value: 0
      objectReference: {fileID: 0}
    - target: {fileID: -8679921383154817045, guid: ff93da11b55b3049e869b04bc9c3aca2, type: 3}
      propertyPath: m_LocalEulerAnglesHint.y
      value: 0
      objectReference: {fileID: 0}
    - target: {fileID: -8679921383154817045, guid: ff93da11b55b3049e869b04bc9c3aca2, type: 3}
      propertyPath: m_LocalEulerAnglesHint.z
      value: 0
      objectReference: {fileID: 0}
    - target: {fileID: -7511558181221131132, guid: ff93da11b55b3049e869b04bc9c3aca2, type: 3}
      propertyPath: m_Materials.Array.size
      value: 1
      objectReference: {fileID: 0}
    - target: {fileID: -7511558181221131132, guid: ff93da11b55b3049e869b04bc9c3aca2, type: 3}
      propertyPath: m_Materials.Array.data[0]
      value: 
      objectReference: {fileID: 2100000, guid: f1b200f52b7db43b09d943394758dfcf, type: 2}
    - target: {fileID: -7511558181221131132, guid: ff93da11b55b3049e869b04bc9c3aca2, type: 3}
      propertyPath: m_Materials.Array.data[1]
      value: 
      objectReference: {fileID: -2813467912831258332, guid: ff93da11b55b3049e869b04bc9c3aca2, type: 3}
    - target: {fileID: 919132149155446097, guid: ff93da11b55b3049e869b04bc9c3aca2, type: 3}
      propertyPath: m_Name
      value: Blue_Planet
      objectReference: {fileID: 0}
    m_RemovedComponents: []
  m_SourcePrefab: {fileID: 100100000, guid: ff93da11b55b3049e869b04bc9c3aca2, type: 3}
--- !u!4 &1610025307374109024 stripped
Transform:
  m_CorrespondingSourceObject: {fileID: -8679921383154817045, guid: ff93da11b55b3049e869b04bc9c3aca2, type: 3}
  m_PrefabInstance: {fileID: 1287268639498643083}
  m_PrefabAsset: {fileID: 0}
--- !u!1001 &1465333188196003021
PrefabInstance:
  m_ObjectHideFlags: 0
  serializedVersion: 2
  m_Modification:
    m_TransformParent: {fileID: 1610025307374109024}
    m_Modifications:
    - target: {fileID: -8679921383154817045, guid: 21ea32e9da50e27c790163ccea4ae031, type: 3}
      propertyPath: m_RootOrder
      value: 1
      objectReference: {fileID: 0}
    - target: {fileID: -8679921383154817045, guid: 21ea32e9da50e27c790163ccea4ae031, type: 3}
      propertyPath: m_LocalPosition.x
      value: 0
      objectReference: {fileID: 0}
    - target: {fileID: -8679921383154817045, guid: 21ea32e9da50e27c790163ccea4ae031, type: 3}
      propertyPath: m_LocalPosition.y
      value: 0
      objectReference: {fileID: 0}
    - target: {fileID: -8679921383154817045, guid: 21ea32e9da50e27c790163ccea4ae031, type: 3}
      propertyPath: m_LocalPosition.z
      value: 0
      objectReference: {fileID: 0}
    - target: {fileID: -8679921383154817045, guid: 21ea32e9da50e27c790163ccea4ae031, type: 3}
      propertyPath: m_LocalRotation.w
      value: 1
      objectReference: {fileID: 0}
    - target: {fileID: -8679921383154817045, guid: 21ea32e9da50e27c790163ccea4ae031, type: 3}
      propertyPath: m_LocalRotation.x
      value: 0
      objectReference: {fileID: 0}
    - target: {fileID: -8679921383154817045, guid: 21ea32e9da50e27c790163ccea4ae031, type: 3}
      propertyPath: m_LocalRotation.y
      value: 0
      objectReference: {fileID: 0}
    - target: {fileID: -8679921383154817045, guid: 21ea32e9da50e27c790163ccea4ae031, type: 3}
      propertyPath: m_LocalRotation.z
      value: 0
      objectReference: {fileID: 0}
    - target: {fileID: -8679921383154817045, guid: 21ea32e9da50e27c790163ccea4ae031, type: 3}
      propertyPath: m_LocalEulerAnglesHint.x
      value: 0
      objectReference: {fileID: 0}
    - target: {fileID: -8679921383154817045, guid: 21ea32e9da50e27c790163ccea4ae031, type: 3}
      propertyPath: m_LocalEulerAnglesHint.y
      value: 0
      objectReference: {fileID: 0}
    - target: {fileID: -8679921383154817045, guid: 21ea32e9da50e27c790163ccea4ae031, type: 3}
      propertyPath: m_LocalEulerAnglesHint.z
      value: 0
      objectReference: {fileID: 0}
    - target: {fileID: -7511558181221131132, guid: 21ea32e9da50e27c790163ccea4ae031, type: 3}
      propertyPath: m_Materials.Array.data[0]
      value: 
      objectReference: {fileID: 2100000, guid: f1b200f52b7db43b09d943394758dfcf, type: 2}
    - target: {fileID: 919132149155446097, guid: 21ea32e9da50e27c790163ccea4ae031, type: 3}
      propertyPath: m_Name
      value: Blue_Planet_Ring_01_LOD0
      objectReference: {fileID: 0}
    m_RemovedComponents: []
  m_SourcePrefab: {fileID: 100100000, guid: 21ea32e9da50e27c790163ccea4ae031, type: 3}
--- !u!1001 &6343313805472976383
PrefabInstance:
  m_ObjectHideFlags: 0
  serializedVersion: 2
  m_Modification:
    m_TransformParent: {fileID: 1610025307374109024}
    m_Modifications:
    - target: {fileID: -8679921383154817045, guid: d3adf2b12c1ceef54a9475dd8282a73b, type: 3}
      propertyPath: m_RootOrder
      value: 0
      objectReference: {fileID: 0}
    - target: {fileID: -8679921383154817045, guid: d3adf2b12c1ceef54a9475dd8282a73b, type: 3}
      propertyPath: m_LocalPosition.x
      value: 0
      objectReference: {fileID: 0}
    - target: {fileID: -8679921383154817045, guid: d3adf2b12c1ceef54a9475dd8282a73b, type: 3}
      propertyPath: m_LocalPosition.y
      value: 0
      objectReference: {fileID: 0}
    - target: {fileID: -8679921383154817045, guid: d3adf2b12c1ceef54a9475dd8282a73b, type: 3}
      propertyPath: m_LocalPosition.z
      value: 0
      objectReference: {fileID: 0}
    - target: {fileID: -8679921383154817045, guid: d3adf2b12c1ceef54a9475dd8282a73b, type: 3}
      propertyPath: m_LocalRotation.w
      value: 1
      objectReference: {fileID: 0}
    - target: {fileID: -8679921383154817045, guid: d3adf2b12c1ceef54a9475dd8282a73b, type: 3}
      propertyPath: m_LocalRotation.x
      value: 0
      objectReference: {fileID: 0}
    - target: {fileID: -8679921383154817045, guid: d3adf2b12c1ceef54a9475dd8282a73b, type: 3}
      propertyPath: m_LocalRotation.y
      value: 0
      objectReference: {fileID: 0}
    - target: {fileID: -8679921383154817045, guid: d3adf2b12c1ceef54a9475dd8282a73b, type: 3}
      propertyPath: m_LocalRotation.z
      value: 0
      objectReference: {fileID: 0}
    - target: {fileID: -8679921383154817045, guid: d3adf2b12c1ceef54a9475dd8282a73b, type: 3}
      propertyPath: m_LocalEulerAnglesHint.x
      value: 0
      objectReference: {fileID: 0}
    - target: {fileID: -8679921383154817045, guid: d3adf2b12c1ceef54a9475dd8282a73b, type: 3}
      propertyPath: m_LocalEulerAnglesHint.y
      value: 0
      objectReference: {fileID: 0}
    - target: {fileID: -8679921383154817045, guid: d3adf2b12c1ceef54a9475dd8282a73b, type: 3}
      propertyPath: m_LocalEulerAnglesHint.z
      value: 0
      objectReference: {fileID: 0}
    - target: {fileID: -7511558181221131132, guid: d3adf2b12c1ceef54a9475dd8282a73b, type: 3}
      propertyPath: m_Materials.Array.data[0]
      value: 
      objectReference: {fileID: 2100000, guid: f1b200f52b7db43b09d943394758dfcf, type: 2}
    - target: {fileID: 919132149155446097, guid: d3adf2b12c1ceef54a9475dd8282a73b, type: 3}
      propertyPath: m_Name
      value: Blue_Planet_Ring_02_LOD0
      objectReference: {fileID: 0}
    m_RemovedComponents: []
  m_SourcePrefab: {fileID: 100100000, guid: d3adf2b12c1ceef54a9475dd8282a73b, type: 3}
