%YAML 1.1
%TAG !u! tag:unity3d.com,2011:
--- !u!1001 &4407122641821764644
PrefabInstance:
  m_ObjectHideFlags: 0
  serializedVersion: 2
  m_Modification:
    m_TransformParent: {fileID: 0}
    m_Modifications:
    - target: {fileID: 2760411644750341329, guid: 0c4fa024f2645c36db576a5346abbf61, type: 3}
      propertyPath: m_LocalScale.x
      value: -1.5
      objectReference: {fileID: 0}
    - target: {fileID: 3442607523616149012, guid: 0c4fa024f2645c36db576a5346abbf61, type: 3}
      propertyPath: m_RootOrder
      value: 0
      objectReference: {fileID: 0}
    - target: {fileID: 3442607523616149012, guid: 0c4fa024f2645c36db576a5346abbf61, type: 3}
      propertyPath: m_LocalPosition.x
      value: 0
      objectReference: {fileID: 0}
    - target: {fileID: 3442607523616149012, guid: 0c4fa024f2645c36db576a5346abbf61, type: 3}
      propertyPath: m_LocalPosition.y
      value: 0
      objectReference: {fileID: 0}
    - target: {fileID: 3442607523616149012, guid: 0c4fa024f2645c36db576a5346abbf61, type: 3}
      propertyPath: m_LocalPosition.z
      value: 0
      objectReference: {fileID: 0}
    - target: {fileID: 3442607523616149012, guid: 0c4fa024f2645c36db576a5346abbf61, type: 3}
      propertyPath: m_LocalRotation.w
      value: 1
      objectReference: {fileID: 0}
    - target: {fileID: 3442607523616149012, guid: 0c4fa024f2645c36db576a5346abbf61, type: 3}
      propertyPath: m_LocalRotation.x
      value: 0
      objectReference: {fileID: 0}
    - target: {fileID: 3442607523616149012, guid: 0c4fa024f2645c36db576a5346abbf61, type: 3}
      propertyPath: m_LocalRotation.y
      value: 0
      objectReference: {fileID: 0}
    - target: {fileID: 3442607523616149012, guid: 0c4fa024f2645c36db576a5346abbf61, type: 3}
      propertyPath: m_LocalRotation.z
      value: 0
      objectReference: {fileID: 0}
    - target: {fileID: 3442607523616149012, guid: 0c4fa024f2645c36db576a5346abbf61, type: 3}
      propertyPath: m_LocalEulerAnglesHint.x
      value: 0
      objectReference: {fileID: 0}
    - target: {fileID: 3442607523616149012, guid: 0c4fa024f2645c36db576a5346abbf61, type: 3}
      propertyPath: m_LocalEulerAnglesHint.y
      value: 0
      objectReference: {fileID: 0}
    - target: {fileID: 3442607523616149012, guid: 0c4fa024f2645c36db576a5346abbf61, type: 3}
      propertyPath: m_LocalEulerAnglesHint.z
      value: 0
      objectReference: {fileID: 0}
    - target: {fileID: 8966333421029416502, guid: 0c4fa024f2645c36db576a5346abbf61, type: 3}
      propertyPath: m_Name
      value: PF_ControllerL
      objectReference: {fileID: 0}
    m_RemovedComponents: []
  m_SourcePrefab: {fileID: 100100000, guid: 0c4fa024f2645c36db576a5346abbf61, type: 3}
