[api-updater (non-obsolete-error-filter)] 4/2/2022 2:18:48 PM : Starting /home/austinio/UnityEditor/2020.3.32f1/Editor/Data/Tools/ScriptUpdater/APIUpdater.NonObsoleteApiUpdaterDetector.exe
[api-updater (non-obsolete-error-filter)] 
----------------------------------
jit/startup time      : 91.526ms
moved types parse time: 78ms
candidates parse time : 1ms
C# parse time         : 390ms
candidates check time : 91ms
console write time    : 0ms

[api-updater (non-obsolete-error-filter)] 4/2/2022 2:19:26 PM : Starting /home/austinio/UnityEditor/2020.3.32f1/Editor/Data/Tools/ScriptUpdater/APIUpdater.NonObsoleteApiUpdaterDetector.exe
[api-updater (non-obsolete-error-filter)] 
----------------------------------
jit/startup time      : 60.955ms
moved types parse time: 79ms
candidates parse time : 1ms
C# parse time         : 310ms
candidates check time : 92ms
console write time    : 0ms

[api-updater (non-obsolete-error-filter)] 4/2/2022 2:19:39 PM : Starting /home/austinio/UnityEditor/2020.3.32f1/Editor/Data/Tools/ScriptUpdater/APIUpdater.NonObsoleteApiUpdaterDetector.exe
[api-updater (non-obsolete-error-filter)] 
----------------------------------
jit/startup time      : 58.815ms
moved types parse time: 78ms
candidates parse time : 1ms
C# parse time         : 316ms
candidates check time : 82ms
console write time    : 0ms

[api-updater (non-obsolete-error-filter)] 4/2/2022 2:19:57 PM : Starting /home/austinio/UnityEditor/2020.3.32f1/Editor/Data/Tools/ScriptUpdater/APIUpdater.NonObsoleteApiUpdaterDetector.exe
[api-updater (non-obsolete-error-filter)] 
----------------------------------
jit/startup time      : 68.56ms
moved types parse time: 56ms
candidates parse time : 1ms
C# parse time         : 220ms
candidates check time : 54ms
console write time    : 1ms

[api-updater (non-obsolete-error-filter)] 4/4/2022 7:32:54 PM : Starting /home/austinio/UnityEditor/2020.3.32f1/Editor/Data/Tools/ScriptUpdater/APIUpdater.NonObsoleteApiUpdaterDetector.exe
[api-updater (non-obsolete-error-filter)] 
----------------------------------
jit/startup time      : 78.75ms
moved types parse time: 55ms
candidates parse time : 1ms
C# parse time         : 290ms
candidates check time : 81ms
console write time    : 0ms

[api-updater (non-obsolete-error-filter)] 4/4/2022 8:03:10 PM : Starting /home/austinio/UnityEditor/2020.3.32f1/Editor/Data/Tools/ScriptUpdater/APIUpdater.NonObsoleteApiUpdaterDetector.exe
[api-updater (non-obsolete-error-filter)] 
----------------------------------
jit/startup time      : 84.36ms
moved types parse time: 54ms
candidates parse time : 1ms
C# parse time         : 232ms
candidates check time : 55ms
console write time    : 1ms

[api-updater (non-obsolete-error-filter)] 4/4/2022 8:25:05 PM : Starting /home/austinio/UnityEditor/2020.3.32f1/Editor/Data/Tools/ScriptUpdater/APIUpdater.NonObsoleteApiUpdaterDetector.exe
[api-updater (non-obsolete-error-filter)] 
----------------------------------
jit/startup time      : 88.338ms
moved types parse time: 56ms
candidates parse time : 1ms
C# parse time         : 256ms
candidates check time : 92ms
console write time    : 0ms

[api-updater (non-obsolete-error-filter)] 4/5/2022 6:49:55 PM : Starting /home/austinio/UnityEditor/2020.3.32f1/Editor/Data/Tools/ScriptUpdater/APIUpdater.NonObsoleteApiUpdaterDetector.exe
[api-updater (non-obsolete-error-filter)] 
----------------------------------
jit/startup time      : 91.811ms
moved types parse time: 78ms
candidates parse time : 1ms
C# parse time         : 342ms
candidates check time : 59ms
console write time    : 0ms

[api-updater (non-obsolete-error-filter)] 4/5/2022 6:57:34 PM : Starting /home/austinio/UnityEditor/2020.3.32f1/Editor/Data/Tools/ScriptUpdater/APIUpdater.NonObsoleteApiUpdaterDetector.exe
[api-updater (non-obsolete-error-filter)] 
----------------------------------
jit/startup time      : 68.233ms
moved types parse time: 78ms
candidates parse time : 1ms
C# parse time         : 322ms
candidates check time : 94ms
console write time    : 0ms

[api-updater (non-obsolete-error-filter)] 4/5/2022 7:03:50 PM : Starting /home/austinio/UnityEditor/2020.3.32f1/Editor/Data/Tools/ScriptUpdater/APIUpdater.NonObsoleteApiUpdaterDetector.exe
[api-updater (non-obsolete-error-filter)] 
----------------------------------
jit/startup time      : 74.158ms
moved types parse time: 79ms
candidates parse time : 1ms
C# parse time         : 321ms
candidates check time : 67ms
console write time    : 0ms

[api-updater (non-obsolete-error-filter)] 4/5/2022 7:05:43 PM : Starting /home/austinio/UnityEditor/2020.3.32f1/Editor/Data/Tools/ScriptUpdater/APIUpdater.NonObsoleteApiUpdaterDetector.exe
[api-updater (non-obsolete-error-filter)] 
----------------------------------
jit/startup time      : 77.557ms
moved types parse time: 78ms
candidates parse time : 1ms
C# parse time         : 361ms
candidates check time : 66ms
console write time    : 0ms

[api-updater (non-obsolete-error-filter)] 4/6/2022 7:08:03 PM : Starting /home/austinio/UnityEditor/2020.3.32f1/Editor/Data/Tools/ScriptUpdater/APIUpdater.NonObsoleteApiUpdaterDetector.exe
[api-updater (non-obsolete-error-filter)] 
----------------------------------
jit/startup time      : 100.067ms
moved types parse time: 56ms
candidates parse time : 1ms
C# parse time         : 279ms
candidates check time : 73ms
console write time    : 1ms

[api-updater (non-obsolete-error-filter)] 4/13/2022 7:34:57 PM : Starting /home/austinio/UnityEditor/2020.3.32f1/Editor/Data/Tools/ScriptUpdater/APIUpdater.NonObsoleteApiUpdaterDetector.exe
[api-updater (non-obsolete-error-filter)] 
----------------------------------
jit/startup time      : 97.143ms
moved types parse time: 59ms
candidates parse time : 1ms
C# parse time         : 338ms
candidates check time : 115ms
console write time    : 1ms

