%YAML 1.1
%TAG !u! tag:unity3d.com,2011:
--- !u!1 &9018979391825697027
GameObject:
  m_ObjectHideFlags: 0
  m_CorrespondingSourceObject: {fileID: 0}
  m_PrefabInstance: {fileID: 0}
  m_PrefabAsset: {fileID: 0}
  serializedVersion: 6
  m_Component:
  - component: {fileID: 2345561081604641496}
  m_Layer: 0
  m_Name: PF_Sun
  m_TagString: Untagged
  m_Icon: {fileID: 0}
  m_NavMeshLayer: 0
  m_StaticEditorFlags: 0
  m_IsActive: 1
--- !u!4 &2345561081604641496
Transform:
  m_ObjectHideFlags: 0
  m_CorrespondingSourceObject: {fileID: 0}
  m_PrefabInstance: {fileID: 0}
  m_PrefabAsset: {fileID: 0}
  m_GameObject: {fileID: 9018979391825697027}
  m_LocalRotation: {x: 0, y: 0, z: 0, w: 1}
  m_LocalPosition: {x: 0, y: 0, z: 0}
  m_LocalScale: {x: 1, y: 1, z: 1}
  m_Children:
  - {fileID: 6275127977945369815}
  m_Father: {fileID: 0}
  m_RootOrder: 0
  m_LocalEulerAnglesHint: {x: 0, y: 0, z: 0}
--- !u!1001 &5809365185616538428
PrefabInstance:
  m_ObjectHideFlags: 0
  serializedVersion: 2
  m_Modification:
    m_TransformParent: {fileID: 2345561081604641496}
    m_Modifications:
    - target: {fileID: -8679921383154817045, guid: b67c02e54d6b62eef829c0330d7da7ea, type: 3}
      propertyPath: m_RootOrder
      value: 0
      objectReference: {fileID: 0}
    - target: {fileID: -8679921383154817045, guid: b67c02e54d6b62eef829c0330d7da7ea, type: 3}
      propertyPath: m_LocalPosition.x
      value: -0
      objectReference: {fileID: 0}
    - target: {fileID: -8679921383154817045, guid: b67c02e54d6b62eef829c0330d7da7ea, type: 3}
      propertyPath: m_LocalPosition.y
      value: 0
      objectReference: {fileID: 0}
    - target: {fileID: -8679921383154817045, guid: b67c02e54d6b62eef829c0330d7da7ea, type: 3}
      propertyPath: m_LocalPosition.z
      value: 0
      objectReference: {fileID: 0}
    - target: {fileID: -8679921383154817045, guid: b67c02e54d6b62eef829c0330d7da7ea, type: 3}
      propertyPath: m_LocalRotation.w
      value: 1
      objectReference: {fileID: 0}
    - target: {fileID: -8679921383154817045, guid: b67c02e54d6b62eef829c0330d7da7ea, type: 3}
      propertyPath: m_LocalRotation.x
      value: 0
      objectReference: {fileID: 0}
    - target: {fileID: -8679921383154817045, guid: b67c02e54d6b62eef829c0330d7da7ea, type: 3}
      propertyPath: m_LocalRotation.y
      value: -0
      objectReference: {fileID: 0}
    - target: {fileID: -8679921383154817045, guid: b67c02e54d6b62eef829c0330d7da7ea, type: 3}
      propertyPath: m_LocalRotation.z
      value: -0
      objectReference: {fileID: 0}
    - target: {fileID: -8679921383154817045, guid: b67c02e54d6b62eef829c0330d7da7ea, type: 3}
      propertyPath: m_LocalEulerAnglesHint.x
      value: 0
      objectReference: {fileID: 0}
    - target: {fileID: -8679921383154817045, guid: b67c02e54d6b62eef829c0330d7da7ea, type: 3}
      propertyPath: m_LocalEulerAnglesHint.y
      value: 0
      objectReference: {fileID: 0}
    - target: {fileID: -8679921383154817045, guid: b67c02e54d6b62eef829c0330d7da7ea, type: 3}
      propertyPath: m_LocalEulerAnglesHint.z
      value: 0
      objectReference: {fileID: 0}
    - target: {fileID: -7511558181221131132, guid: b67c02e54d6b62eef829c0330d7da7ea, type: 3}
      propertyPath: m_Materials.Array.size
      value: 1
      objectReference: {fileID: 0}
    - target: {fileID: -7511558181221131132, guid: b67c02e54d6b62eef829c0330d7da7ea, type: 3}
      propertyPath: m_Materials.Array.data[0]
      value: 
      objectReference: {fileID: 2100000, guid: cfe4a4e746376bdc59496f019c73b22b, type: 2}
    - target: {fileID: -7511558181221131132, guid: b67c02e54d6b62eef829c0330d7da7ea, type: 3}
      propertyPath: m_Materials.Array.data[1]
      value: 
      objectReference: {fileID: 2100000, guid: 19267f361f2c9463ab4bac72d1fc19e2, type: 2}
    - target: {fileID: 919132149155446097, guid: b67c02e54d6b62eef829c0330d7da7ea, type: 3}
      propertyPath: m_Name
      value: Red_Giant
      objectReference: {fileID: 0}
    m_RemovedComponents: []
  m_SourcePrefab: {fileID: 100100000, guid: b67c02e54d6b62eef829c0330d7da7ea, type: 3}
--- !u!4 &6275127977945369815 stripped
Transform:
  m_CorrespondingSourceObject: {fileID: -8679921383154817045, guid: b67c02e54d6b62eef829c0330d7da7ea, type: 3}
  m_PrefabInstance: {fileID: 5809365185616538428}
  m_PrefabAsset: {fileID: 0}
